dump.vcd
$date
Thu Mar 12 10:59:46 2026
$end
$version
Riviera-PRO Version 2025.04.139.9738
$end
$timescale
1 ps
$end

$scope module tb $end
$var reg 1 ! clk $end

$scope module vif $end
$var reg 1 " rst $end
$var reg 1 # enable $end
$var reg 1 $ up_down $end
$var reg 4 % count [3:0] $end
$upscope $end


$scope module dut $end
$var wire 1 & clk $end
$var wire 1 ' rst $end
$var wire 1 ( enable $end
$var wire 1 ) up_down $end
$var reg 4 * count [3:0] $end
$upscope $end

$upscope $end

$enddefinitions $end
$dumpvars
0!
1"
x#
x$
b0 %
0&
1'
x(
x)
b0 *
$end
#5
1!
1&
#10
0!
0&
#15
1!
1&
#20
0"
0!
0&
0'
#25
1!
1&
#30
0!
0&
#35
1!
1&
#40
0!
0&
0#
1$
1)
0(
#45
1!
1&
#50
0!
0&
0$
0)
#55
1!
1&
#60
0!
0&
1#
1(
#65
1!
1&
b1111 *
b1111 %
#70
0!
0&
1$
1)
#75
1!
1&
b0 *
b0 %
#80
0!
0&
0#
0$
0)
0(
#85
1!
1&
#90
0!
0&
1#
1$
1)
1(
#95
1!
1&
b1 *
b1 %
#100
0!
0&
0#
0(
#105
1!
1&
#110
0!
0&
1#
1(
#115
1!
1&
b10 *
b10 %
#120
0!
0&
#125
1!
1&
b11 *
b11 %
#130
0!
0&
#135
1!
1&
b100 *
b100 %
#140
0!
0&
0$
0)
#145
1!
1&
b11 *
b11 %
#150
0!
0&
#155
1!
1&
b10 *
b10 %
#160
0!
0&
#165
1!
1&
b1 *
b1 %
#170
0!
0&
0#
1$
1)
0(
#175
1!
1&
#180
0!
0&
1#
1(
#185
1!
1&
b10 *
b10 %
#190
0!
0&
0#
0$
0)
0(
#195
1!
1&
#200
0!
0&
1#
1$
1)
1(
#205
1!
1&
b11 *
b11 %
#210
0!
0&
#215
1!
1&
b100 *
b100 %
#220
0!
0&
0#
0$
0)
0(
#225
1!
1&
#230
0!
0&
1$
1)
#235
1!
1&
#240
0!
0&
0$
0)
#245
1!
1&
#250
0!
0&
1$
1)
#255
1!
1&
#260
0!
0&
1#
1(
#265
1!
1&
b101 *
b101 %
#270
0!
0&
#275
1!
1&
b110 *
b110 %
#280
0!
0&
0#
0(
#285
1!
1&
#290
0!
0&
1#
1(
#295
1!
1&
b111 *
b111 %
#300
0!
0&
0#
0$
0)
0(
#305
1!
1&
#310
0!
0&
1#
1$
1)
1(
#315
1!
1&
b1000 *
b1000 %
#320
0!
0&
0$
0)
#325
1!
1&
b111 *
b111 %
#330
0!
0&
#335
1!
1&
b110 *
b110 %
#340
0!
0&
#345
1!
1&
b101 *
b101 %
#350
0!
0&
#355
1!
1&
b100 *
b100 %
#360
0!
0&
#365
1!
1&
b11 *
b11 %
#370
0!
0&
0#
0(
#375
1!
1&
#380
0!
0&
1#
1$
1)
1(
#385
1!
1&
b100 *
b100 %
#390
0!
0&
0$
0)
#395
1!
1&
b11 *
b11 %
#400
0!
0&
#405
1!
1&
b10 *
b10 %
#410
0!
0&
1$
1)
#415
1!
1&
b11 *
b11 %
#420
0!
0&
0#
0(
#425
1!
1&
#430
0!
0&
1#
1(
#435
1!
1&
b100 *
b100 %
#440
0!
0&
#445
1!
1&
b101 *
b101 %
#450
0!
0&
0#
0$
0)
0(
#455
1!
1&
#460
0!
0&
1#
1$
1)
1(
#465
1!
1&
b110 *
b110 %
#470
0!
0&
0$
0)
#475
1!
1&
b101 *
b101 %
#480
0!
0&
1$
1)
#485
1!
1&
b110 *
b110 %
#490
0!
0&
#495
1!
1&
b111 *
b111 %
#500
0!
0&
0#
0(
#505
1!
1&
#510
0!
0&
1#
1(
#515
1!
1&
b1000 *
b1000 %
#520
0!
0&
#525
1!
1&
b1001 *
b1001 %
#530
0!
0&
0$
0)
#535
1!
1&
b1000 *
b1000 %
#540
0!
0&
1$
1)
#545
1!
1&
b1001 *
b1001 %
#550
0!
0&
0$
0)
#555
1!
1&
b1000 *
b1000 %
#560
0!
0&
1$
1)
#565
1!
1&
b1001 *
b1001 %
#570
0!
0&
#575
1!
1&
b1010 *
b1010 %
#580
0!
0&
#585
1!
1&
b1011 *
b1011 %
#590
0!
0&
#595
1!
1&
b1100 *
b1100 %
#600
0!
0&
0$
0)
#605
1!
1&
b1011 *
b1011 %
#610
0!
0&
0#
1$
1)
0(
#615
1!
1&
#620
0!
0&
1#
0$
0)
1(
#625
1!
1&
b1010 *
b1010 %
#630
0!
0&
1$
1)
#635
1!
1&
b1011 *
b1011 %
#640
0!
0&
0$
0)
#645
1!
1&
b1010 *
b1010 %
#650
0!
0&
#655
1!
1&
b1001 *
b1001 %
#660
0!
0&
0#
0(
#665
1!
1&
#670
0!
0&
1#
1(
#675
1!
1&
b1000 *
b1000 %
#680
0!
0&
1$
1)
#685
1!
1&
b1001 *
b1001 %
#690
0!
0&
0$
0)
#695
1!
1&
b1000 *
b1000 %
#700
0!
0&
1$
1)
#705
1!
1&
b1001 *
b1001 %
#710
0!
0&
0$
0)
#715
1!
1&
b1000 *
b1000 %
#720
0!
0&
#725
1!
1&
b111 *
b111 %
#730
0!
0&
1$
1)
#735
1!
1&
b1000 *
b1000 %
#740
0!
0&
0$
0)
#745
1!
1&
b111 *
b111 %
#750
0!
0&
#755
1!
1&
b110 *
b110 %
#760
0!
0&
#765
1!
1&
b101 *
b101 %
#770
0!
0&
1$
1)
#775
1!
1&
b110 *
b110 %
#780
0!
0&
0$
0)
#785
1!
1&
b101 *
b101 %
#790
0!
0&
#795
1!
1&
b100 *
b100 %
#800
0!
0&
1$
1)
#805
1!
1&
b101 *
b101 %
#810
0!
0&
0#
0(
#815
1!
1&
#820
0!
0&
1#
0$
0)
1(
#825
1!
1&
b100 *
b100 %
#830
0!
0&
#835
1!
1&
b11 *
b11 %
#840
0!
0&
1$
1)
#845
1!
1&
b100 *
b100 %
#850
0!
0&
0$
0)
#855
1!
1&
b11 *
b11 %
#860
0!
0&
1$
1)
#865
1!
1&
b100 *
b100 %
#870
0!
0&
0$
0)
#875
1!
1&
b11 *
b11 %
#880
0!
0&
#885
1!
1&
b10 *
b10 %
#890
0!
0&
0#
0(
#895
1!
1&
#900
0!
0&
1#
1(
#905
1!
1&
b1 *
b1 %
#910
0!
0&
1$
1)
#915
1!
1&
b10 *
b10 %
#920
0!
0&
#925
1!
1&
b11 *
b11 %
#930
0!
0&
0#
0$
0)
0(
#935
1!
1&
#940
0!
0&
#945
1!
1&
#950
0!
0&
1#
1$
1)
1(
#955
1!
1&
b100 *
b100 %
#960
0!
0&
#965
1!
1&
b101 *
b101 %
#970
0!
0&
#975
1!
1&
b110 *
b110 %
#980
0!
0&
0#
0(
#985
1!
1&
#990
0!
0&
1#
0$
0)
1(
#995
1!
1&
b101 *
b101 %
#1000
0!
0&
0#
1$
1)
0(
#1005
1!
1&
#1010
0!
0&
1#
0$
0)
1(
#1015
1!
1&
b100 *
b100 %
#1020
0!
0&
1$
1)
#1025
1!
1&
b101 *
b101 %
#1030
0!
0&
0$
0)
#1035
1!
1&
b100 *
b100 %
#1040
0!
0&
#1045
1!
1&
b11 *
b11 %
#1050
0!
0&
#1055
1!
1&
b10 *
b10 %
#1060
0!
0&
1$
1)
#1065
1!
1&
b11 *
b11 %
#1070
0!
0&
0#
0(
#1075
1!
1&
#1080
0!
0&
1#
0$
0)
1(
#1085
1!
1&
b10 *
b10 %
#1090
0!
0&
1$
1)
#1095
1!
1&
b11 *
b11 %
#1100
0!
0&
#1105
1!
1&
b100 *
b100 %
#1110
0!
0&
0$
0)
#1115
1!
1&
b11 *
b11 %
#1120
0!
0&
0#
0(
#1125
1!
1&
#1130
0!
0&
1#
1(
#1135
1!
1&
b10 *
b10 %
#1140
0!
0&
1$
1)
#1145
1!
1&
b11 *
b11 %
#1150
0!
0&
0#
0$
0)
0(
#1155
1!
1&
#1160
0!
0&
1$
1)
#1165
1!
1&
#1170
0!
0&
1#
0$
0)
1(
#1175
1!
1&
b10 *
b10 %
#1180
0!
0&
1$
1)
#1185
1!
1&
b11 *
b11 %
#1190
0!
0&
#1195
1!
1&
b100 *
b100 %
#1200
0!
0&
#1205
1!
1&
b101 *
b101 %
#1210
0!
0&
#1215
1!
1&
b110 *
b110 %
#1220
0!
0&
0$
0)
#1225
1!
1&
b101 *
b101 %
#1230
0!
0&
#1235
1!
1&
b100 *
b100 %
#1240
0!
0&
1$
1)
#1245
1!
1&
b101 *
b101 %
#1250
0!
0&
#1255
1!
1&
b110 *
b110 %
#1260
0!
0&
0$
0)
#1265
1!
1&
b101 *
b101 %
#1270
0!
0&
#1275
1!
1&
b100 *
b100 %
#1280
0!
0&
#1285
1!
1&
b11 *
b11 %
#1290
0!
0&
#1295
1!
1&
b10 *
b10 %
#1300
0!
0&
1$
1)
#1305
1!
1&
b11 *
b11 %
#1310
0!
0&
0#
0$
0)
0(
#1315
1!
1&
#1320
0!
0&
1#
1$
1)
1(
#1325
1!
1&
b100 *
b100 %
#1330
0!
0&
0$
0)
#1335
1!
1&
b11 *
b11 %
#1340
0!
0&
#1345
1!
1&
b10 *
b10 %
#1350
0!
0&
#1355
1!
1&
b1 *
b1 %
#1360
0!
0&
#1365
1!
1&
b0 *
b0 %
#1370
0!
0&
#1375
1!
1&
b1111 *
b1111 %
#1380
0!
0&
1$
1)
#1385
1!
1&
b0 *
b0 %
#1390
0!
0&
#1395
1!
1&
b1 *
b1 %
#1400
0!
0&
0$
0)
#1405
1!
1&
b0 *
b0 %
#1410
0!
0&
#1415
1!
1&
b1111 *
b1111 %
#1420
0!
0&
1$
1)
#1425
1!
1&
b0 *
b0 %
#1430
0!
0&
0#
0(
#1435
1!
1&
#1440
0!
0&
0$
0)
#1445
1!
1&
#1450
0!
0&
1#
1(
#1455
1!
1&
b1111 *
b1111 %
#1460
0!
0&
1$
1)
#1465
1!
1&
b0 *
b0 %
#1470
0!
0&
0$
0)
#1475
1!
1&
b1111 *
b1111 %
#1480
0!
0&
0#
1$
1)
0(
#1485
1!
1&
#1490
0!
0&
1#
0$
0)
1(
#1495
1!
1&
b1110 *
b1110 %
#1500
0!
0&
0#
0(
#1505
1!
1&
#1510
0!
0&
1#
1(
#1515
1!
1&
b1101 *
b1101 %
#1520
0!
0&
#1525
1!
1&
b1100 *
b1100 %
#1530
0!
0&
1$
1)
#1535
1!
1&
b1101 *
b1101 %
#1540
0!
0&
0$
0)
#1545
1!
1&
b1100 *
b1100 %
#1550
0!
0&
1$
1)
#1555
1!
1&
b1101 *
b1101 %
#1560
0!
0&
0$
0)
#1565
1!
1&
b1100 *
b1100 %
#1570
0!
0&
0#
1$
1)
0(
#1575
1!
1&
#1580
0!
0&
1#
1(
#1585
1!
1&
b1101 *
b1101 %
#1590
0!
0&
#1595
1!
1&
b1110 *
b1110 %
#1600
0!
0&
0$
0)
#1605
1!
1&
b1101 *
b1101 %
#1610
0!
0&
#1615
1!
1&
b1100 *
b1100 %
#1620
0!
0&
1$
1)
#1625
1!
1&
b1101 *
b1101 %
#1630
0!
0&
0$
0)
#1635
1!
1&
b1100 *
b1100 %
#1640
0!
0&
1$
1)
#1645
1!
1&
b1101 *
b1101 %
#1650
0!
0&
#1655
1!
1&
b1110 *
b1110 %
#1660
0!
0&
0#
0(
#1665
1!
1&
#1670
0!
0&
1#
1(
#1675
1!
1&
b1111 *
b1111 %
#1680
0!
0&
#1685
1!
1&
b0 *
b0 %
#1690
0!
0&
0$
0)
#1695
1!
1&
b1111 *
b1111 %
#1700
0!
0&
1$
1)
#1705
1!
1&
b0 *
b0 %
#1710
0!
0&
0$
0)
#1715
1!
1&
b1111 *
b1111 %
#1720
0!
0&
1$
1)
#1725
1!
1&
b0 *
b0 %
#1730
0!
0&
#1735
1!
1&
b1 *
b1 %
#1740
0!
0&
#1745
1!
1&
b10 *
b10 %
#1750
0!
0&
#1755
1!
1&
b11 *
b11 %
#1760
0!
0&
0$
0)
#1765
1!
1&
b10 *
b10 %
#1770
0!
0&
#1775
1!
1&
b1 *
b1 %
#1780
0!
0&
0#
1$
1)
0(
#1785
1!
1&
#1790
0!
0&
1#
1(
#1795
1!
1&
b10 *
b10 %
#1800
0!
0&
0#
0$
0)
0(
#1805
1!
1&
#1810
0!
0&
1#
1(
#1815
1!
1&
b1 *
b1 %
#1820
0!
0&
#1825
1!
1&
b0 *
b0 %
#1830
0!
0&
#1835
1!
1&
b1111 *
b1111 %
#1840
0!
0&
#1845
1!
1&
b1110 *
b1110 %
#1850
0!
0&
1$
1)
#1855
1!
1&
b1111 *
b1111 %
#1860
0!
0&
0$
0)
#1865
1!
1&
b1110 *
b1110 %
#1870
0!
0&
0#
0(
#1875
1!
1&
#1880
0!
0&
1#
1$
1)
1(
#1885
1!
1&
b1111 *
b1111 %
#1890
0!
0&
#1895
1!
1&
b0 *
b0 %
#1900
0!
0&
#1905
1!
1&
b1 *
b1 %
#1910
0!
0&
0#
0(
#1915
1!
1&
#1920
0!
0&
1#
0$
0)
1(
#1925
1!
1&
b0 *
b0 %
#1930
0!
0&
1$
1)
#1935
1!
1&
b1 *
b1 %
#1940
0!
0&
0$
0)
#1945
1!
1&
b0 *
b0 %
#1950
0!
0&
1$
1)
#1955
1!
1&
b1 *
b1 %
#1960
0!
0&
0#
0(
#1965
1!
1&
#1970
0!
0&
1#
1(
#1975
1!
1&
b10 *
b10 %
#1980
0!
0&
#1985
1!
1&
b11 *
b11 %
#1990
0!
0&
#1995
1!
1&
b100 *
b100 %
#2000
0!
0&
0$
0)
#2005
1!
1&
b11 *
b11 %
#2010
0!
0&
1$
1)
#2015
1!
1&
b100 *
b100 %
#2020
0!
0&
0$
0)
#2025
1!
1&
b11 *
b11 %
#2030
0!
0&
0#
1$
1)
0(
#2035
1!
1&
#2040
0!
0&
#2045
1!
1&
#2050
0!
0&
1#
1(
#2055
1!
1&
b100 *
b100 %
#2060
0!
0&
#2065
1!
1&
b101 *
b101 %
#2070
0!
0&
0$
0)
#2075
1!
1&
b100 *
b100 %
#2080
0!
0&
0#
0(
#2085
1!
1&
#2090
0!
0&
1#
1$
1)
1(
#2095
1!
1&
b101 *
b101 %
#2100
0!
0&
0#
0$
0)
0(
#2105
1!
1&
#2110
0!
0&
1#
1(
#2115
1!
1&
b100 *
b100 %
#2120
0!
0&
#2125
1!
1&
b11 *
b11 %
#2130
0!
0&
#2135
1!
1&
b10 *
b10 %
#2140
0!
0&
#2145
1!
1&
b1 *
b1 %
#2150
0!
0&
#2155
1!
1&
b0 *
b0 %
#2160
0!
0&
1$
1)
#2165
1!
1&
b1 *
b1 %
#2170
0!
0&
0$
0)
#2175
1!
1&
b0 *
b0 %
#2180
0!
0&
#2185
1!
1&
b1111 *
b1111 %
#2190
0!
0&
1$
1)
#2195
1!
1&
b0 *
b0 %
#2200
0!
0&
#2205
1!
1&
b1 *
b1 %
#2210
0!
0&
0#
0(
#2215
1!
1&
#2220
0!
0&
1#
1(
#2225
1!
1&
b10 *
b10 %
#2230
0!
0&
0$
0)
#2235
1!
1&
b1 *
b1 %
#2240
0!
0&
1$
1)
#2245
1!
1&
b10 *
b10 %
#2250
0!
0&
0$
0)
#2255
1!
1&
b1 *
b1 %
#2260
0!
0&
1$
1)
#2265
1!
1&
b10 *
b10 %
#2270
0!
0&
#2275
1!
1&
b11 *
b11 %
#2280
0!
0&
#2285
1!
1&
b100 *
b100 %
#2290
0!
0&
0#
0(
#2295
1!
1&
#2300
0!
0&
1#
1(
#2305
1!
1&
b101 *
b101 %
#2310
0!
0&
0$
0)
#2315
1!
1&
b100 *
b100 %
#2320
0!
0&
0#
1$
1)
0(
#2325
1!
1&
#2330
0!
0&
0$
0)
#2335
1!
1&
#2340
0!
0&
1#
1$
1)
1(
#2345
1!
1&
b101 *
b101 %
#2350
0!
0&
0#
0(
#2355
1!
1&
#2360
0!
0&
1#
1(
#2365
1!
1&
b110 *
b110 %
#2370
0!
0&
#2375
1!
1&
b111 *
b111 %
#2380
0!
0&
0$
0)
#2385
1!
1&
b110 *
b110 %
#2390
0!
0&
1$
1)
#2395
1!
1&
b111 *
b111 %
#2400
0!
0&
0$
0)
#2405
1!
1&
b110 *
b110 %
#2410
0!
0&
1$
1)
#2415
1!
1&
b111 *
b111 %
#2420
0!
0&
0$
0)
#2425
1!
1&
b110 *
b110 %
#2430
0!
0&
#2435
1!
1&
b101 *
b101 %
#2440
0!
0&
#2445
1!
1&
b100 *
b100 %
#2450
0!
0&
#2455
1!
1&
b11 *
b11 %
#2460
0!
0&
1$
1)
#2465
1!
1&
b100 *
b100 %
#2470
0!
0&
0$
0)
#2475
1!
1&
b11 *
b11 %
#2480
0!
0&
0#
1$
1)
0(
#2485
1!
1&
#2490
0!
0&
1#
0$
0)
1(
#2495
1!
1&
b10 *
b10 %
#2500
0!
0&
#2505
1!
1&
b1 *
b1 %
#2510
0!
0&
1$
1)
#2515
1!
1&
b10 *
b10 %
#2520
0!
0&
#2525
1!
1&
b11 *
b11 %
#2530
0!
0&
0$
0)
#2535
1!
1&
b10 *
b10 %
#2540
0!
0&
#2545
1!
1&
b1 *
b1 %
#2550
0!
0&
1$
1)
#2555
1!
1&
b10 *
b10 %
#2560
0!
0&
0$
0)
#2565
1!
1&
b1 *
b1 %
#2570
0!
0&
0#
0(
#2575
1!
1&
#2580
0!
0&
1#
1$
1)
1(
#2585
1!
1&
b10 *
b10 %
#2590
0!
0&
#2595
1!
1&
b11 *
b11 %
#2600
0!
0&
#2605
1!
1&
b100 *
b100 %
#2610
0!
0&
0#
0$
0)
0(
#2615
1!
1&
#2620
0!
0&
1#
1(
#2625
1!
1&
b11 *
b11 %
#2630
0!
0&
1$
1)
#2635
1!
1&
b100 *
b100 %
#2640
0!
0&
#2645
1!
1&
b101 *
b101 %
#2650
0!
0&
0$
0)
#2655
1!
1&
b100 *
b100 %
#2660
0!
0&
#2665
1!
1&
b11 *
b11 %
#2670
0!
0&
#2675
1!
1&
b10 *
b10 %
#2680
0!
0&
#2685
1!
1&
b1 *
b1 %
#2690
0!
0&
0#
0(
#2695
1!
1&
#2700
0!
0&
1#
1$
1)
1(
#2705
1!
1&
b10 *
b10 %
#2710
0!
0&
0$
0)
#2715
1!
1&
b1 *
b1 %
#2720
0!
0&
0#
1$
1)
0(
#2725
1!
1&
#2730
0!
0&
#2735
1!
1&
#2740
0!
0&
1#
1(
#2745
1!
1&
b10 *
b10 %
#2750
0!
0&
0#
0(
#2755
1!
1&
#2760
0!
0&
1#
1(
#2765
1!
1&
b11 *
b11 %
#2770
0!
0&
#2775
1!
1&
b100 *
b100 %
#2780
0!
0&
0$
0)
#2785
1!
1&
b11 *
b11 %
#2790
0!
0&
1$
1)
#2795
1!
1&
b100 *
b100 %
#2800
0!
0&
#2805
1!
1&
b101 *
b101 %
#2810
0!
0&
0$
0)
#2815
1!
1&
b100 *
b100 %
#2820
0!
0&
#2825
1!
1&
b11 *
b11 %
#2830
0!
0&
#2835
1!
1&
b10 *
b10 %
#2840
0!
0&
#2845
1!
1&
b1 *
b1 %
#2850
0!
0&
1$
1)
#2855
1!
1&
b10 *
b10 %
#2860
0!
0&
0$
0)
#2865
1!
1&
b1 *
b1 %
#2870
0!
0&
1$
1)
#2875
1!
1&
b10 *
b10 %
#2880
0!
0&
0#
0$
0)
0(
#2885
1!
1&
#2890
0!
0&
1#
1(
#2895
1!
1&
b1 *
b1 %
#2900
0!
0&
0#
0(
#2905
1!
1&
#2910
0!
0&
1#
1(
#2915
1!
1&
b0 *
b0 %
#2920
0!
0&
1$
1)
#2925
1!
1&
b1 *
b1 %
#2930
0!
0&
#2935
1!
1&
b10 *
b10 %
#2940
0!
0&
0$
0)
#2945
1!
1&
b1 *
b1 %
#2950
0!
0&
1$
1)
#2955
1!
1&
b10 *
b10 %
#2960
0!
0&
#2965
1!
1&
b11 *
b11 %
#2970
0!
0&
#2975
1!
1&
b100 *
b100 %
#2980
0!
0&
#2985
1!
1&
b101 *
b101 %
#2990
0!
0&
#2995
1!
1&
b110 *
b110 %
#3000
0!
0&
#3005
1!
1&
b111 *
b111 %
#3010
0!
0&
0#
0$
0)
0(
#3015
1!
1&
#3020
0!
0&
1#
1$
1)
1(
#3025
1!
1&
b1000 *
b1000 %
#3030
0!
0&
0$
0)
#3035
1!
1&
b111 *
b111 %
#3040
0!
0&
#3045
1!
1&
b110 *
b110 %
#3050
0!
0&
#3055
1!
1&
b101 *
b101 %
#3060
0!
0&
#3065
1!
1&
b100 *
b100 %
#3070
0!
0&
0#
0(
#3075
1!
1&
#3080
0!
0&
1#
1(
#3085
1!
1&
b11 *
b11 %
#3090
0!
0&
1$
1)
#3095
1!
1&
b100 *
b100 %
#3100
0!
0&
0$
0)
#3105
1!
1&
b11 *
b11 %
#3110
0!
0&
#3115
1!
1&
b10 *
b10 %
#3120
0!
0&
1$
1)
#3125
1!
1&
b11 *
b11 %
#3130
0!
0&
#3135
1!
1&
b100 *
b100 %
#3140
0!
0&
#3145
1!
1&
b101 *
b101 %
#3150
0!
0&
0$
0)
#3155
1!
1&
b100 *
b100 %
#3160
0!
0&
0#
0(
#3165
1!
1&
#3170
0!
0&
1#
1$
1)
1(
#3175
1!
1&
b101 *
b101 %
#3180
0!
0&
0$
0)
#3185
1!
1&
b100 *
b100 %
#3190
0!
0&
0#
0(
#3195
1!
1&
#3200
0!
0&
1#
1$
1)
1(
#3205
1!
1&
b101 *
b101 %
#3210
0!
0&
#3215
1!
1&
b110 *
b110 %
#3220
0!
0&
0#
0(
#3225
1!
1&
#3230
0!
0&
0$
0)
#3235
1!
1&
#3240
0!
0&
1#
1(
#3245
1!
1&
b101 *
b101 %
#3250
0!
0&
0#
1$
1)
0(
#3255
1!
1&
#3260
0!
0&
1#
1(
#3265
1!
1&
b110 *
b110 %
#3270
0!
0&
0$
0)
#3275
1!
1&
b101 *
b101 %
#3280
0!
0&
#3285
1!
1&
b100 *
b100 %
#3290
0!
0&
#3295
1!
1&
b11 *
b11 %
#3300
0!
0&
#3305
1!
1&
b10 *
b10 %
#3310
0!
0&
#3315
1!
1&
b1 *
b1 %
#3320
0!
0&
1$
1)
#3325
1!
1&
b10 *
b10 %
#3330
0!
0&
0#
0$
0)
0(
#3335
1!
1&
#3340
0!
0&
1$
1)
#3345
1!
1&
#3350
0!
0&
1#
1(
#3355
1!
1&
b11 *
b11 %
#3360
0!
0&
#3365
1!
1&
b100 *
b100 %
#3370
0!
0&
#3375
1!
1&
b101 *
b101 %
#3380
0!
0&
0#
0(
#3385
1!
1&
#3390
0!
0&
1#
0$
0)
1(
#3395
1!
1&
b100 *
b100 %
#3400
0!
0&
0#
1$
1)
0(
#3405
1!
1&
#3410
0!
0&
1#
0$
0)
1(
#3415
1!
1&
b11 *
b11 %
#3420
0!
0&
1$
1)
#3425
1!
1&
b100 *
b100 %
#3430
0!
0&
#3435
1!
1&
b101 *
b101 %
#3440
0!
0&
0$
0)
#3445
1!
1&
b100 *
b100 %
#3450
0!
0&
1$
1)
#3455
1!
1&
b101 *
b101 %
#3460
0!
0&
#3465
1!
1&
b110 *
b110 %
#3470
0!
0&
0$
0)
#3475
1!
1&
b101 *
b101 %
#3480
0!
0&
0#
0(
#3485
1!
1&
#3490
0!
0&
1#
1(
#3495
1!
1&
b100 *
b100 %
#3500
0!
0&
1$
1)
#3505
1!
1&
b101 *
b101 %
#3510
0!
0&
#3515
1!
1&
b110 *
b110 %
#3520
0!
0&
#3525
1!
1&
b111 *
b111 %
#3530
0!
0&
#3535
1!
1&
b1000 *
b1000 %
#3540
0!
0&
#3545
1!
1&
b1001 *
b1001 %
#3550
0!
0&
0$
0)
#3555
1!
1&
b1000 *
b1000 %
#3560
0!
0&
1$
1)
#3565
1!
1&
b1001 *
b1001 %
#3570
0!
0&
0$
0)
#3575
1!
1&
b1000 *
b1000 %
#3580
0!
0&
1$
1)
#3585
1!
1&
b1001 *
b1001 %
#3590
0!
0&
#3595
1!
1&
b1010 *
b1010 %
#3600
0!
0&
#3605
1!
1&
b1011 *
b1011 %
#3610
0!
0&
0#
0(
#3615
1!
1&
#3620
0!
0&
1#
0$
0)
1(
#3625
1!
1&
b1010 *
b1010 %
#3630
0!
0&
1$
1)
#3635
1!
1&
b1011 *
b1011 %
#3640
0!
0&
0$
0)
#3645
1!
1&
b1010 *
b1010 %
#3650
0!
0&
1$
1)
#3655
1!
1&
b1011 *
b1011 %
#3660
0!
0&
#3665
1!
1&
b1100 *
b1100 %
#3670
0!
0&
0#
0$
0)
0(
#3675
1!
1&
#3680
0!
0&
1#
1(
#3685
1!
1&
b1011 *
b1011 %
#3690
0!
0&
1$
1)
#3695
1!
1&
b1100 *
b1100 %
#3700
0!
0&
#3705
1!
1&
b1101 *
b1101 %
#3710
0!
0&
0#
0$
0)
0(
#3715
1!
1&
#3720
0!
0&
1#
1$
1)
1(
#3725
1!
1&
b1110 *
b1110 %
#3730
0!
0&
#3735
1!
1&
b1111 *
b1111 %
#3740
0!
0&
0$
0)
#3745
1!
1&
b1110 *
b1110 %
#3750
0!
0&
#3755
1!
1&
b1101 *
b1101 %
#3760
0!
0&
#3765
1!
1&
b1100 *
b1100 %
#3770
0!
0&
1$
1)
#3775
1!
1&
b1101 *
b1101 %
#3780
0!
0&
#3785
1!
1&
b1110 *
b1110 %
#3790
0!
0&
0#
0$
0)
0(
#3795
1!
1&
#3800
0!
0&
1#
1$
1)
1(
#3805
1!
1&
b1111 *
b1111 %
#3810
0!
0&
#3815
1!
1&
b0 *
b0 %
#3820
0!
0&
0#
0$
0)
0(
#3825
1!
1&
#3830
0!
0&
1#
1(
#3835
1!
1&
b1111 *
b1111 %
#3840
0!
0&
#3845
1!
1&
b1110 *
b1110 %
#3850
0!
0&
1$
1)
#3855
1!
1&
b1111 *
b1111 %
#3860
0!
0&
0#
0$
0)
0(
#3865
1!
1&
#3870
0!
0&
1#
1$
1)
1(
#3875
1!
1&
b0 *
b0 %
#3880
0!
0&
0$
0)
#3885
1!
1&
b1111 *
b1111 %
#3890
0!
0&
0#
1$
1)
0(
#3895
1!
1&
#3900
0!
0&
1#
1(
#3905
1!
1&
b0 *
b0 %
#3910
0!
0&
#3915
1!
1&
b1 *
b1 %
#3920
0!
0&
#3925
1!
1&
b10 *
b10 %
#3930
0!
0&
0#
0$
0)
0(
#3935
1!
1&
#3940
0!
0&
#3945
1!
1&
#3950
0!
0&
1$
1)
#3955
1!
1&
#3960
0!
0&
1#
1(
#3965
1!
1&
b11 *
b11 %
#3970
0!
0&
0$
0)
#3975
1!
1&
b10 *
b10 %
#3980
0!
0&
#3985
1!
1&
b1 *
b1 %
#3990
0!
0&
#3995
1!
1&
b0 *
b0 %
#4000
0!
0&
#4005
1!
1&
b1111 *
b1111 %
#4010
0!
0&
1$
1)
#4015
1!
1&
b0 *
b0 %
#4020
0!
0&
0$
0)
#4025
1!
1&
b1111 *
b1111 %
#4030
0!
0&
1$
1)
#4035
1!
1&
b0 *
b0 %
#4040
0!
0&
0$
0)
#4045
1!
1&
b1111 *
b1111 %
#4050
0!
0&
#4055
1!
1&
b1110 *
b1110 %
#4060
0!
0&
#4065
1!
1&
b1101 *
b1101 %
#4070
0!
0&
#4075
1!
1&
b1100 *
b1100 %
#4080
0!
0&
0#
0(
#4085
1!
1&
#4090
0!
0&
1#
1$
1)
1(
#4095
1!
1&
b1101 *
b1101 %
#4100
0!
0&
0#
0$
0)
0(
#4105
1!
1&
#4110
0!
0&
1#
1$
1)
1(
#4115
1!
1&
b1110 *
b1110 %
#4120
0!
0&
0$
0)
#4125
1!
1&
b1101 *
b1101 %
#4130
0!
0&
#4135
1!
1&
b1100 *
b1100 %
#4140
0!
0&
#4145
1!
1&
b1011 *
b1011 %
#4150
0!
0&
#4155
1!
1&
b1010 *
b1010 %
#4160
0!
0&
1$
1)
#4165
1!
1&
b1011 *
b1011 %
#4170
0!
0&
#4175
1!
1&
b1100 *
b1100 %
#4180
0!
0&
0#
0$
0)
0(
#4185
1!
1&
#4190
0!
0&
1#
1(
#4195
1!
1&
b1011 *
b1011 %
#4200
0!
0&
0#
1$
1)
0(
#4205
1!
1&
#4210
0!
0&
1#
1(
#4215
1!
1&
b1100 *
b1100 %
#4220
0!
0&
#4225
1!
1&
b1101 *
b1101 %
#4230
0!
0&
#4235
1!
1&
b1110 *
b1110 %
#4240
0!
0&
0$
0)
#4245
1!
1&
b1101 *
b1101 %
#4250
0!
0&
1$
1)
#4255
1!
1&
b1110 *
b1110 %
#4260
0!
0&
0$
0)
#4265
1!
1&
b1101 *
b1101 %
#4270
0!
0&
1$
1)
#4275
1!
1&
b1110 *
b1110 %
#4280
0!
0&
0$
0)
#4285
1!
1&
b1101 *
b1101 %
#4290
0!
0&
#4295
1!
1&
b1100 *
b1100 %
#4300
0!
0&
#4305
1!
1&
b1011 *
b1011 %
#4310
0!
0&
1$
1)
#4315
1!
1&
b1100 *
b1100 %
#4320
0!
0&
#4325
1!
1&
b1101 *
b1101 %
#4330
0!
0&
0$
0)
#4335
1!
1&
b1100 *
b1100 %
#4340
0!
0&
1$
1)
#4345
1!
1&
b1101 *
b1101 %
#4350
0!
0&
#4355
1!
1&
b1110 *
b1110 %
#4360
0!
0&
0$
0)
#4365
1!
1&
b1101 *
b1101 %
#4370
0!
0&
#4375
1!
1&
b1100 *
b1100 %
#4380
0!
0&
#4385
1!
1&
b1011 *
b1011 %
#4390
0!
0&
1$
1)
#4395
1!
1&
b1100 *
b1100 %
#4400
0!
0&
#4405
1!
1&
b1101 *
b1101 %
#4410
0!
0&
0$
0)
#4415
1!
1&
b1100 *
b1100 %
#4420
0!
0&
1$
1)
#4425
1!
1&
b1101 *
b1101 %
#4430
0!
0&
#4435
1!
1&
b1110 *
b1110 %
#4440
0!
0&
#4445
1!
1&
b1111 *
b1111 %
